<?xml version="1.0" standalone="no"?>
<!DOCTYPE svg PUBLIC "-//W3C//DTD SVG 1.1//EN" "http://www.w3.org/Graphics/SVG/1.1/DTD/svg11.dtd" >
<svg xmlns="http://www.w3.org/2000/svg">
<metadata>Generated by IcoMoon</metadata>
<defs>
<font id="icomoon" horiz-adv-x="1024">
<font-face units-per-em="1024" ascent="960" descent="-64" />
<missing-glyph horiz-adv-x="1024" />
<glyph unicode="&#x20;" horiz-adv-x="512" d="" />
<glyph unicode="&#xe900;" glyph-name="chat" d="M0 272.032c0-23.194 27.794-36.349 47.543-23.194l164.937 111.469c13.897 9.347 29.989 14.193 47.177 14.193h362.789c64 0 115.931 49.158 115.931 109.74v360.373c0 15.578-13.531 28.387-29.989 28.387h-592.457c-64 0-115.931-49.158-115.931-109.739v-491.229zM59.977 763.261c0 29.079 24.869 52.966 55.954 52.966h562.103v-331.986c0-29.079-24.868-52.966-55.954-52.966h-362.423c-29.623 0-57.783-8.655-81.92-24.925l-117.395-79.276v436.186h-0.366zM1024.009 543.095c0 60.582-51.925 109.739-115.925 109.739h-80.095c-16.457 0-29.989-12.809-29.989-28.387s13.531-28.386 29.989-28.386h80.095c30.72 0 55.953-23.541 55.953-52.966v-436.187l-117.396 79.276c-24.137 16.271-52.297 24.925-81.92 24.925h-362.789c-30.72 0-55.954 23.54-55.954 52.966v25.271c0 15.578-13.531 28.386-29.989 28.386s-29.989-12.809-29.989-28.386v-25.271c0-60.582 51.931-109.739 115.931-109.739h362.789c16.823 0 33.28-4.847 47.177-14.193l164.939-111.47c19.746-13.158 47.539 0 47.539 23.194v491.23h-0.367zM215.822 661.559h346.697c16.457 0 29.989 12.809 29.989 28.387s-13.531 28.387-29.989 28.387h-346.697c-16.457 0-29.989-12.809-29.989-28.387s13.532-28.387 29.989-28.387zM215.822 528.893h346.697c16.457 0 29.989 12.809 29.989 28.386s-13.531 28.387-29.989 28.387h-346.697c-16.457 0-29.989-12.809-29.989-28.387s13.532-28.386 29.989-28.386z" />
<glyph unicode="&#xe901;" glyph-name="dropdown" d="M512 168.727l-443.405 558.545h886.806l-443.401-558.545z" />
<glyph unicode="&#xe902;" glyph-name="facebook" d="M725.333 810.665c0 5.658-2.249 11.084-6.246 15.085-4.002 4.001-9.429 6.249-15.087 6.249h-106.667c-53.713 2.676-106.3-16.017-146.274-51.993-39.972-35.976-64.082-86.311-67.059-140.007v-115.202h-106.667c-5.658 0-11.084-2.244-15.085-6.246s-6.249-9.425-6.249-15.087v-110.933c0-5.658 2.248-11.081 6.249-15.083s9.427-6.251 15.085-6.251h106.667v-285.867c0-5.658 2.248-11.081 6.249-15.083s9.427-6.251 15.085-6.251h128c5.658 0 11.085 2.249 15.087 6.251 3.998 4.002 6.246 9.425 6.246 15.083v285.867h111.787c4.745-0.068 9.374 1.451 13.163 4.309 3.785 2.859 6.511 6.899 7.744 11.477l30.72 110.933c0.849 3.153 0.964 6.46 0.333 9.664-0.627 3.2-1.984 6.217-3.964 8.815-1.98 2.594-4.527 4.702-7.445 6.161-2.923 1.455-6.14 2.223-9.404 2.24h-142.933v115.202c1.062 10.561 6.020 20.347 13.909 27.447s18.142 11.005 28.757 10.953h106.667c5.658 0 11.085 2.248 15.087 6.248 3.998 4.001 6.246 9.427 6.246 15.085v110.933z" />
<glyph unicode="&#xe904;" glyph-name="inbox" d="M853.333 64h-682.667c-68.267 0-128 59.733-128 128v512c0 68.267 59.733 128 128 128h682.667c68.267 0 128-59.733 128-128v-512c0-68.267-59.733-128-128-128zM170.667 746.667c-25.6 0-42.667-17.067-42.667-42.667v-512c0-25.6 17.067-42.667 42.667-42.667h682.667c25.6 0 42.667 17.067 42.667 42.667v512c0 25.6-17.067 42.667-42.667 42.667h-682.667zM512 362.667c-8.533 0-17.067 0-25.6 8.533l-426.667 298.667c-17.067 8.533-25.6 42.667-8.533 59.733s42.667 25.6 59.733 8.533l401.067-281.6 401.067 281.6c17.067 17.067 42.667 8.533 59.733-8.533s8.533-42.667-8.533-59.733l-426.667-298.667c-8.533-8.533-17.067-8.533-25.6-8.533z" />
<glyph unicode="&#xe905;" glyph-name="instagram" d="M768 832h-512c-72.533 0-128-55.467-128-128v-512c0-72.533 55.467-128 128-128h512c72.533 0 128 55.467 128 128v512c0 72.533-55.467 128-128 128zM512 576c72.533 0 128-55.467 128-128s-55.467-128-128-128c-72.533 0-128 55.467-128 128s55.467 128 128 128zM674.133 661.333c0 29.867 25.6 51.2 51.2 51.2s51.2-25.6 51.2-51.2c0-25.6-21.333-51.2-51.2-51.2s-51.2 21.333-51.2 51.2v0zM768 149.333h-512c-25.6 0-42.667 17.067-42.667 42.667v256h85.333c0-119.467 93.867-213.333 213.333-213.333s213.333 93.867 213.333 213.333h85.333v-256c0-25.6-17.067-42.667-42.667-42.667z" />
<glyph unicode="&#xe906;" glyph-name="mail" d="M853.333 89.6h-682.667c-58.027 0-102.4 44.373-102.4 102.4v512c0 58.027 44.373 102.4 102.4 102.4h682.667c58.027 0 102.4-44.373 102.4-102.4v-512c0-58.027-44.373-102.4-102.4-102.4zM170.667 772.267c-37.547 0-68.267-30.72-68.267-68.267v-512c0-37.547 30.72-68.267 68.267-68.267h682.667c37.547 0 68.267 30.72 68.267 68.267v512c0 37.547-30.72 68.267-68.267 68.267h-682.667zM512 386.56c-3.413 0-6.827 0-10.24 3.413l-426.667 300.373c-6.827 3.413-10.24 17.067-3.413 23.893 3.413 6.827 17.067 10.24 23.893 3.413l416.427-290.133 416.427 290.133c6.827 6.827 17.067 3.413 23.893-3.413s3.413-17.067-3.413-23.893l-426.667-296.96c-3.413-3.413-6.827-6.827-10.24-6.827z" />
<glyph unicode="&#xe907;" glyph-name="map-pin" d="M512-64c-8.533 0-17.067 0-25.6 8.533-17.067 8.533-401.067 273.067-401.067 588.8 0 110.933 42.667 221.867 128 298.667 76.8 85.333 187.733 128 298.667 128s221.867-42.667 298.667-128c85.333-76.8 128-187.733 128-298.667 0-315.733-384-580.267-401.067-588.8-8.533-8.533-17.067-8.533-25.6-8.533zM512 874.667c-93.867 0-179.2-34.133-238.933-102.4-68.267-59.733-102.4-145.067-102.4-238.933 0-230.4 264.533-443.733 341.333-503.467 76.8 59.733 341.333 273.067 341.333 503.467 0 93.867-34.133 179.2-102.4 238.933s-145.067 102.4-238.933 102.4zM512 362.667c-93.867 0-170.667 76.8-170.667 170.667s76.8 170.667 170.667 170.667c93.867 0 170.667-76.8 170.667-170.667s-76.8-170.667-170.667-170.667zM512 618.667c-51.2 0-85.333-34.133-85.333-85.333s34.133-85.333 85.333-85.333 85.333 34.133 85.333 85.333-34.133 85.333-85.333 85.333z" />
<glyph unicode="&#xe908;" glyph-name="message" d="M125.156 38.4c-5.689 0-17.067 5.689-22.756 5.689-5.689 5.689-11.378 17.067-5.689 28.444l79.644 233.244c-22.756 51.2-34.133 108.089-34.133 164.978 0 73.956 22.756 142.222 56.889 204.8 39.822 62.578 91.022 113.778 159.289 142.222 51.2 28.444 113.778 39.822 176.356 39.822 0 0 0 0 0 0h22.756c96.711-5.689 187.733-45.511 256-113.778s108.089-159.289 113.778-256v-22.756c0-62.578-11.378-119.467-39.822-176.356-34.133-62.578-79.644-119.467-142.222-159.289s-130.844-56.889-204.8-56.889c-56.889 0-113.778 11.378-164.978 34.133l-233.244-79.644c-5.689 11.378-11.378 11.378-17.067 11.378zM534.756 800.711c-51.2 0-102.4-11.378-147.911-34.133-56.889-28.444-102.4-68.267-136.533-119.467s-51.2-113.778-51.2-176.356c0-51.2 11.378-102.4 34.133-147.911 5.689-5.689 5.689-17.067 0-22.756l-62.578-193.422 187.733 62.578c5.689 0 17.067 0 22.756 0 45.511-22.756 96.711-34.133 147.911-34.133 62.578 0 125.156 17.067 176.356 51.2s96.711 79.644 125.156 136.533c22.756 45.511 34.133 96.711 34.133 147.911 0 0 0 0 0 0v22.756c-5.689 79.644-39.822 159.289-96.711 216.178s-136.533 91.022-216.178 96.711l-17.067-5.689c0 0 0 0 0 0z" />
<glyph unicode="&#xe909;" glyph-name="phone" d="M893.156-52.622c-5.689 0-5.689 0-11.378 0-147.911 17.067-295.822 68.267-420.978 147.911-119.467 79.644-221.867 182.044-295.822 295.822-79.644 125.156-136.533 273.067-147.911 426.667 0 17.067 0 34.133 5.689 51.2s11.378 28.444 28.444 45.511c5.689 11.378 22.756 17.067 39.822 22.756s34.133 11.378 51.2 11.378h142.222c28.444 0 56.889-11.378 79.644-28.444s34.133-45.511 39.822-73.956c5.689-45.511 17.067-85.333 34.133-125.156 5.689-22.756 11.378-45.511 5.689-68.267-11.378-28.444-22.756-51.2-34.133-68.267l-45.511-39.822c62.578-102.4 142.222-182.044 244.622-244.622l45.511 45.511c17.067 17.067 39.822 28.444 62.578 34.133s45.511 5.689 68.267-5.689c39.822-17.067 85.333-28.444 125.156-34.133 28.444-5.689 56.889-17.067 79.644-39.822 17.067-22.756 28.444-51.2 28.444-79.644v-142.222c0-17.067-5.689-34.133-11.378-51.2s-17.067-28.444-28.444-39.822c-11.378-11.378-28.444-22.756-45.511-28.444s-28.444-11.378-39.822-11.378zM278.756 891.733c0 0 0 0 0 0h-142.222c-11.378 0-17.067 0-28.444-5.689-5.689 0-11.378-5.689-17.067-11.378-5.689-11.378-11.378-17.067-17.067-28.444 0-5.689-5.689-17.067 0-22.756 17.067-142.222 62.578-278.756 142.222-398.222 68.267-108.089 164.978-204.8 273.067-278.756 119.467-79.644 256-125.156 398.222-142.222 11.378 0 17.067 0 28.444 5.689s17.067 5.689 22.756 11.378c5.689 5.689 11.378 11.378 17.067 22.756 5.689 5.689 5.689 17.067 5.689 28.444v142.222c0 0 0 0 0 0 0 17.067-5.689 34.133-17.067 45.511s-22.756 22.756-39.822 22.756c-45.511 5.689-96.711 17.067-136.533 34.133-11.378 5.689-22.756 5.689-39.822 0-11.378 0-22.756-11.378-34.133-17.067l-62.578-62.578c-11.378-11.378-22.756-11.378-34.133-5.689-125.156 68.267-227.556 170.667-295.822 295.822-5.689 17.067-5.689 28.444 5.689 39.822l62.578 62.578c11.378 11.378 17.067 22.756 17.067 34.133s0 22.756 0 39.822c-22.756 39.822-34.133 85.333-39.822 130.844 0 17.067-11.378 28.444-22.756 39.822s-28.444 17.067-45.511 17.067z" />
<glyph unicode="&#xe90b;" glyph-name="star" d="M512 886.857l114.951-328.513h371.99l-300.946-203.032 114.951-328.512-300.946 203.031-300.946-203.031 114.951 328.512-300.946 203.032h371.99l114.951 328.513z" />
<glyph unicode="&#xe90c;" glyph-name="support" d="M121.271 263.219h-4.148c-30.798 0-60.334 12.233-82.111 34.014-21.777 21.777-34.012 51.313-34.012 82.111v90.228c0 30.795 12.234 60.334 34.012 82.111s51.314 34.010 82.111 34.010h40.571v0.997c0 195.681 158.63 354.309 354.309 354.309s354.307-158.628 354.307-354.309v-0.997h40.571c30.799 0 60.334-12.233 82.111-34.010s34.010-51.316 34.010-82.111v-90.228c0-30.799-12.233-60.334-34.010-82.111-21.777-21.78-51.313-34.014-82.111-34.014h-56.255c-5.369 0-10.52 2.133-14.316 5.932-3.796 3.796-5.932 8.946-5.932 14.316v303.223c0 175.836-142.541 318.38-318.375 318.38-175.836 0-318.38-142.544-318.38-318.38v-303.223c0-5.369-2.132-10.52-5.928-14.316-3.799-3.799-8.947-5.932-14.316-5.932h-16.176c0.92-113.654 93.33-205.493 207.188-205.493h34.761c3.42 15.793 11.315 30.416 22.921 42.022 15.91 15.91 37.489 24.846 59.989 24.846h59.884c46.851 0 84.832-37.98 84.832-84.832 0-46.855-37.98-84.835-84.832-84.835h-59.884c-40.687 0-74.684 28.641-82.93 66.867h-34.741c-133.711 0-242.211 107.94-243.119 241.425v0zM590.848 39.762c0 27.006-21.897 48.903-48.903 48.903h-59.884c-12.971 0-25.409-5.151-34.58-14.322-9.172-9.175-14.326-21.61-14.326-34.58 0-27.010 21.897-48.906 48.906-48.906h59.884c27.006 0 48.903 21.897 48.903 48.906zM157.694 549.765h-40.571c-21.268 0-41.667-8.451-56.705-23.491-15.039-15.036-23.488-35.434-23.488-56.702v-90.228c0-21.268 8.449-41.667 23.488-56.706s35.437-23.491 56.705-23.491h40.571v250.617zM866.311 549.765v-250.617h40.571c21.268 0 41.667 8.451 56.706 23.491s23.487 35.437 23.487 56.706v90.228c0 21.268-8.448 41.667-23.487 56.702-15.039 15.039-35.437 23.491-56.706 23.491h-40.571zM577.655 487.352c14.503 0 26.259 11.759 26.259 26.259 0 14.503-11.756 26.255-26.259 26.255-14.5 0-26.255-11.759-26.255-26.255-0.003-14.5 11.756-26.259 26.255-26.259zM498.855 487.352c14.503 0 26.259 11.759 26.259 26.259 0 14.503-11.756 26.255-26.259 26.255-14.5 0-26.255-11.759-26.255-26.255-0.003-14.5 11.756-26.259 26.255-26.259zM420.123 487.352c14.503 0 26.255 11.759 26.255 26.259 0 14.503-11.752 26.255-26.255 26.255s-26.255-11.759-26.255-26.255c-0.003-14.5 11.752-26.259 26.255-26.259zM447.287 279.931c0-11.725 7.161-22.183 18.248-26.648 3.649-1.468 7.468-2.185 11.25-2.185 7.69 0 15.223 2.959 20.883 8.54l90.484 89.279h77.438c23.89 0 43.322 19.012 43.322 42.38v237.52c0 23.368-19.432 42.382-43.322 42.382h-307.2c-23.889 0-43.323-19.014-43.323-42.382v-237.52c0-23.368 19.434-42.383 43.323-42.383h88.897v-68.983zM358.39 378.634c-7.137 0-12.943 5.68-12.943 12.663v237.52c0 6.982 5.806 12.664 12.943 12.664h307.2c7.134 0 12.943-5.68 12.943-12.664v-237.52c0-6.984-5.806-12.663-12.943-12.663h-83.77c-4.052 0-7.936-1.584-10.786-4.4l-93.368-92.119v81.661c0 8.206-6.799 14.858-15.189 14.858h-104.086z" />
<glyph unicode="&#xe90d;" glyph-name="tiktok" d="M835.844 674.56c-42.53 9.353-81.007 31.939-109.905 64.517s-46.733 73.473-50.948 116.817v18.773h-147.2v-583.253c0.030-25.882-8.081-51.115-23.189-72.124-15.108-21.013-36.446-36.74-60.988-44.954s-51.046-8.495-75.758-0.806c-24.712 7.689-46.378 22.959-61.929 43.644-13.933 18.313-22.465 40.154-24.631 63.061s2.121 45.961 12.375 66.56c10.255 20.599 26.068 37.914 45.651 49.993s42.156 18.441 65.164 18.359c12.725 0.073 25.385-1.796 37.545-5.547v149.333c-14.148 1.752-28.41 2.466-42.665 2.133-52.509-1.403-103.471-18.088-146.642-48.013-43.172-29.922-76.68-71.787-96.423-120.461-19.742-48.678-24.862-102.054-14.731-153.6 10.131-51.541 35.072-99.008 71.769-136.593 37.61-38.238 85.738-64.431 138.269-75.255s107.096-5.786 156.756 14.473c49.66 20.258 92.181 54.822 122.155 99.298 29.973 44.48 46.046 96.862 46.178 150.498v298.667c59.371-42.409 130.564-65.092 203.52-64.853v145.067c-14.332-0.059-28.629 1.371-42.667 4.267h-1.707z" />
<glyph unicode="&#xe90e;" glyph-name="web" d="M0 464.788v1.449c12.854 168.011 72.837 294.019 177.093 373.68 102.828 81.109 214.226 120.215 335.621 120.215 127.107 1.448 245.646-42.003 351.328-128.906 107.119-85.454 159.957-212.911 159.957-378.025v-10.138c0-166.563-52.838-291.123-159.957-376.579-107.111-86.903-225.649-130.355-352.757-130.355h-5.712c-124.251 1.451-238.505 44.902-344.19 131.806-105.684 85.454-159.955 217.256-161.383 396.854zM481.295 692.182v228.843h-34.277c-7.141-8.69-12.853-18.829-18.566-27.519s-11.425-17.381-17.138-27.519c-5.712-8.69-12.853-20.277-17.137-28.967-5.713-8.69-9.998-17.381-14.282-27.519-8.569-14.484-15.71-28.968-21.422-42.003-7.142-13.036-12.854-26.071-17.138-37.658 8.569-5.794 18.566-13.036 29.991-17.381 12.854-4.345 25.708-8.69 38.561-11.587 14.281-2.896 27.135-4.345 38.56-5.793 12.854-1.448 24.279-2.897 32.848-2.897zM541.278 921.026v-227.394c7.141 0 15.71-1.449 24.278 0 8.569 0 18.567 1.448 27.136 2.896 15.71 2.897 34.276 7.242 48.557 11.587 15.71 5.793 29.992 13.036 39.989 21.726-17.137 42.003-35.704 75.315-54.27 107.18s-39.989 59.383-62.839 82.557v1.448h-22.851zM387.034 907.99v1.448c-9.997-4.345-19.994-11.587-31.42-15.932-9.997-4.345-22.851-10.139-32.847-15.932-19.994-10.139-39.989-21.725-59.983-34.761-18.567-13.036-37.133-27.519-52.843-42.003 5.713-5.793 12.854-11.587 18.566-15.933s12.854-10.138 19.994-15.932c5.713-2.897 12.854-7.242 19.994-13.036 7.142-4.345 15.71-10.138 24.279-15.932 11.425 26.070 22.851 53.589 37.133 78.212 14.281 26.070 29.991 50.693 45.701 72.418 1.428 2.897 2.857 5.794 5.713 8.69 1.428 1.448 2.856 5.794 5.712 8.69zM824.055 800.811v1.448c-35.704 27.519-67.124 50.693-98.544 65.177s-62.839 28.968-91.403 40.555c22.851-23.174 42.845-52.141 55.699-79.66 14.282-28.967 28.564-59.383 39.989-88.351 5.713 2.896 12.854 5.793 21.423 11.587 7.141 4.345 17.137 8.69 25.707 13.036 8.569 5.793 15.71 11.587 24.279 17.381 8.569 7.241 17.138 13.036 22.851 18.829zM799.777 477.823h164.242c0 53.59-11.426 104.283-32.853 156.425-19.994 50.693-48.555 92.696-84.259 128.905v1.448c-7.142-11.587-17.138-21.726-27.136-28.967-11.425-7.242-21.422-13.036-32.847-18.829-7.142-4.345-14.282-10.138-21.423-13.036-7.141-4.345-17.138-7.242-24.279-11.587 5.713-11.587 11.425-24.622 17.138-36.209 4.285-13.036 11.425-27.519 14.281-40.555 8.569-23.174 14.282-47.796 19.994-72.419 4.285-21.725 7.142-44.899 7.142-65.177zM282.778 692.182v1.449c-11.425 5.793-24.279 10.138-34.277 15.932-9.997 7.242-19.994 14.484-28.563 20.278-8.569 4.344-17.138 10.138-24.279 15.932s-12.854 11.587-18.567 17.381c-37.132-36.209-64.267-76.764-81.405-124.56-18.566-47.796-31.42-101.386-37.133-159.321h175.665c0 40.554 5.713 79.66 15.71 118.766 8.569 40.555 21.423 70.97 32.848 94.144zM481.295 479.272v166.562c-11.425-1.448-25.708-1.448-38.561 0-14.281 1.449-28.563 5.794-41.417 10.139-11.425 2.896-25.708 5.793-37.133 10.138-12.854 2.896-25.707 8.69-35.704 14.484-8.569-14.484-15.71-31.864-21.422-50.693-7.142-17.381-11.425-36.209-15.71-53.59-2.857-17.38-4.285-36.209-5.713-52.141s-2.856-31.864-2.856-44.899h198.516zM541.278 642.938v-163.666h211.369c0 8.689 0 18.829-1.428 30.415-2.857 10.138-4.285 23.174-5.713 34.761-4.285 17.38-8.569 36.209-14.281 53.589-5.713 15.933-11.425 31.864-18.567 44.9-2.856 7.241-5.712 15.932-8.568 21.725-4.285 7.242-8.569 11.587-11.425 15.933-15.711-11.587-37.133-18.829-62.84-24.622-24.279-5.794-52.842-11.587-78.549-13.036h-9.997zM234.22 431.475h-175.665c0-24.622 4.285-52.141 11.425-85.454 7.141-34.761 21.423-66.626 37.132-101.386 7.141-17.381 15.71-34.761 24.279-52.141 9.997-15.933 21.422-33.312 32.848-49.245 8.568 5.793 17.137 10.138 24.278 14.484 8.569 4.345 18.567 10.138 27.136 14.484 9.997 4.345 19.994 8.69 31.42 14.484 9.997 4.345 22.851 10.139 35.704 15.933-11.425 36.209-24.279 70.97-32.848 110.077-9.997 37.658-15.71 75.315-15.71 117.318v1.448zM481.295 262.016v169.459h-198.516c0-11.587 1.428-28.967 4.285-46.348 1.428-17.381 5.712-36.209 8.569-55.038 5.712-20.277 9.997-40.554 15.71-57.935s11.425-31.864 17.137-44.9c25.708 10.138 51.414 17.381 68.553 21.726 18.566 5.793 35.704 10.138 52.843 11.587h15.71c5.712 1.449 11.425 1.449 15.71 1.449zM541.278 431.475v-168.011c9.997-1.448 21.422-2.897 32.847-4.345 12.854-1.448 28.564-4.345 41.417-7.242l21.423-4.344c7.141-2.897 15.71-4.345 22.851-5.794 8.569-2.896 17.137-4.345 25.707-7.241 7.142-2.897 14.282-4.345 19.994-7.242 18.567 47.796 29.992 86.903 37.133 120.215 7.141 31.864 9.997 59.383 9.997 82.557v1.448h-211.369zM964.019 430.027v1.448h-164.242v-8.69c-1.428-27.519-5.713-59.383-11.426-92.696-5.712-31.864-18.566-69.522-35.704-115.87 22.851-11.587 44.273-23.174 61.412-34.761s32.848-24.622 44.275-36.209c24.277 24.622 45.696 57.935 64.265 101.386 18.569 42.003 31.42 85.454 38.562 131.802 1.425 8.69 1.425 17.381 2.859 26.071v27.519zM481.295-10.283v225.951c-35.704-5.794-65.696-13.036-88.547-18.829s-39.989-11.587-51.414-17.381c8.569-21.726 17.138-40.555 25.708-57.935 8.568-15.932 18.566-33.314 27.135-47.795 2.856-5.794 8.569-11.588 12.853-18.833 4.285-5.794 7.142-13.030 11.426-18.825 4.284-7.245 8.568-15.932 12.853-24.627 5.713-7.236 9.998-15.932 15.71-21.726h34.277zM541.278-10.283h32.847c12.854 10.146 25.708 24.627 35.704 40.559 11.425 15.932 24.279 34.765 32.848 50.697 9.998 18.825 19.994 36.205 28.564 53.586s15.71 33.312 21.423 44.9c-15.711 5.793-37.133 11.587-58.556 17.381s-51.414 11.587-92.831 17.38v-224.502zM824.055 108.489v1.448c-2.856 4.345-8.568 10.138-12.853 14.484s-11.425 10.138-18.567 14.484c-5.712 4.345-12.854 8.69-21.422 13.036s-19.994 10.138-29.992 15.932c-5.712-11.587-15.71-31.864-29.991-59.383-12.854-27.516-35.704-60.83-64.268-97.045 35.704 5.794 67.124 18.833 95.688 36.215 31.42 15.932 58.555 37.658 81.405 60.83zM292.775 154.836v1.448c-9.997-5.793-25.707-13.036-41.417-20.278-17.138-7.241-35.704-15.932-52.843-27.518 9.997-8.691 19.994-17.378 28.564-23.172 8.569-7.245 18.566-13.039 27.135-18.833 15.71-10.138 34.276-20.275 52.843-28.962 18.566-8.695 41.417-17.382 69.98-26.078-9.997 11.588-17.138 26.078-24.279 37.658-7.141 11.588-15.71 23.177-22.851 34.765s-12.854 24.623-18.566 36.209c-7.142 11.587-12.854 23.174-18.567 34.761z" />
<glyph unicode="&#xe90f;" glyph-name="zalo" horiz-adv-x="1072" d="M532.905 521.701v19.2h57.472v-269.741h-32.85c-6.502-0.010-12.749 2.56-17.362 7.142s-7.224 10.803-7.26 17.306v-0.041c-23.988-17.562-52.956-27.008-82.686-26.967-37.147 0-72.773 14.751-99.047 41.011s-41.047 61.875-41.070 99.021c0.023 37.151 14.795 72.766 41.070 99.025s61.901 41.010 99.047 41.010c29.716 0.033 58.668-9.413 82.646-26.966h0.041zM295.21 627.6v-8.746c0-16.298-2.176-29.61-12.8-45.226l-1.28-1.451c-3.539-3.969-6.982-8.024-10.325-12.16l-184.448-231.512h208.853v-32.768c0-3.231-0.637-6.426-1.874-9.411s-3.052-5.699-5.339-7.982c-2.287-2.278-5.001-4.091-7.988-5.325-2.986-1.229-6.187-1.864-9.418-1.859h-270.592v15.447c0 18.903 4.693 27.351 10.667 36.137l196.565 243.416h-199.040v61.44h287.018zM660.055 271.16c-5.432 0-10.644 2.161-14.484 6.001s-5.996 9.052-5.996 14.479v335.96h61.481v-356.44h-41.001zM882.903 550.373c18.524 0.006 36.864-3.637 53.98-10.721s32.671-17.469 45.773-30.563c13.102-13.094 23.496-28.641 30.592-45.753 7.091-17.113 10.747-35.453 10.752-53.977s-3.635-36.864-10.721-53.98c-7.081-17.116-17.469-32.671-30.561-45.773-13.097-13.102-28.641-23.496-45.752-30.592-17.111-7.091-35.456-10.747-53.98-10.752-37.407-0.010-73.293 14.838-99.753 41.283s-41.334 62.321-41.344 99.727c-0.010 37.412 14.838 73.295 41.283 99.757s62.321 41.333 99.732 41.345zM450.262 326.246c10.98-0.251 21.899 1.695 32.116 5.724s19.526 10.061 27.38 17.736c7.854 7.68 14.095 16.85 18.355 26.972s6.456 20.997 6.456 31.98c0 10.982-2.196 21.852-6.456 31.974-4.26 10.125-10.501 19.294-18.355 26.971s-17.163 13.708-27.38 17.737c-10.217 4.029-21.136 5.976-32.116 5.726-21.532-0.49-42.017-9.388-57.073-24.79s-23.484-36.085-23.484-57.619c0-21.54 8.43-42.22 23.484-57.626 15.055-15.401 35.54-24.294 57.073-24.786zM882.903 326.374c22.006 0 43.116 8.74 58.68 24.305 15.56 15.565 24.305 36.669 24.305 58.68s-8.745 43.118-24.305 58.681c-15.565 15.563-36.675 24.306-58.68 24.306-22.011 0-43.121-8.743-58.68-24.306-15.565-15.563-24.31-36.67-24.31-58.681s8.745-43.116 24.31-58.68c15.56-15.565 36.669-24.305 58.68-24.305z" />
</font></defs></svg>