<svg width="10" height="17" viewBox="0 0 10 17" fill="none" xmlns="http://www.w3.org/2000/svg">
<path id="Vector" d="M10 0H7.27273C6.0672 0 4.91104 0.447767 4.05861 1.2448C3.20617 2.04183 2.72727 3.12283 2.72727 4.25V6.8H0V10.2H2.72727V17H6.36364V10.2H9.09091L10 6.8H6.36364V4.25C6.36364 4.02457 6.45942 3.80837 6.6299 3.64896C6.80039 3.48955 7.03162 3.4 7.27273 3.4H10V0Z" fill="#1C3C55"/>
</svg>
