<svg width="95" height="71" viewBox="0 0 95 71" fill="none" xmlns="http://www.w3.org/2000/svg">
<path d="M5.706 65.1495C1.902 61.3455 0 56.2734 0 50.5675C0 47.3974 0.634001 43.9104 1.902 40.7405C3.17 37.5705 5.389 33.7664 8.559 29.3284L28.53 0.481445L41.21 8.72345L25.677 32.4984C29.481 33.1325 32.651 35.3514 35.821 38.5214C38.674 41.6914 40.259 45.8124 40.259 50.5675C40.259 56.2734 38.04 61.3455 34.236 65.1495C30.432 68.9534 25.677 70.8554 20.288 70.8554C14.582 70.8554 9.51 68.9534 5.706 65.1495ZM59.279 65.1495C55.475 61.3455 53.573 56.2734 53.573 50.5675C53.573 47.3974 54.207 43.9104 55.475 40.7405C56.743 37.5705 58.962 33.7664 62.132 29.3284L82.103 0.481445L94.783 8.72345L79.25 32.4984C83.054 33.1325 86.224 35.3514 89.394 38.5214C92.247 41.6914 93.832 45.8124 93.832 50.5675C93.832 56.2734 91.613 61.3455 87.809 65.1495C84.005 68.9534 79.25 70.8554 73.861 70.8554C68.155 70.8554 63.083 68.9534 59.279 65.1495Z" fill="white"/>
</svg>
