<svg width="81" height="81" viewBox="0 0 81 81" fill="none" xmlns="http://www.w3.org/2000/svg">
<g id="local_police">
<mask id="mask0_648_7465" style="mask-type:alpha" maskUnits="userSpaceOnUse" x="0" y="0" width="81" height="81">
<rect id="Bounding box" x="0.666992" y="0.736816" width="80" height="80" fill="#D9D9D9"/>
</mask>
<g mask="url(#mask0_648_7465)">
<path id="local_police_2" d="M33.808 49.4113L40.7054 44.078L47.4362 49.2832L44.8337 40.8985L51.9875 35.3601H43.4747L40.7054 26.8472L37.9362 35.3601H29.4233L36.4105 40.8985L33.808 49.4113ZM40.7054 70.6165C34.0088 68.6293 28.4458 64.5727 24.0163 58.4466C19.5868 52.3205 17.3721 45.4199 17.3721 37.7447V19.719L40.7054 11.0011L64.0388 19.719V37.7447C64.0388 45.4199 61.824 52.3205 57.3945 58.4466C52.9651 64.5727 47.402 68.6293 40.7054 70.6165ZM40.7054 67.078C46.4832 65.2447 51.261 61.578 55.0388 56.078C58.8165 50.578 60.7054 44.4669 60.7054 37.7447V21.9947L40.7054 14.5588L20.7054 21.9947V37.7447C20.7054 44.4669 22.5943 50.578 26.3721 56.078C30.1499 61.578 34.9276 65.2447 40.7054 67.078Z" fill="#11A63E"/>
</g>
</g>
</svg>
